{
  "content": [
    {
      "prisonerNumber": "G1458GV",
      "pncNumber": "91/123362Y",
      "pncNumberCanonicalShort": "91/123362Y",
      "pncNumberCanonicalLong": "1991/123362Y",
      "croNumber": "123362/91G",
      "bookingId": "897235",
      "bookNumber": "M88959",
      "firstName": "FINN",
      "middleNames": "CHANDLEVIEVE",
      "lastName": "CRAWFIS",
      "dateOfBirth": "1974-04-13",
      "gender": "Male",
      "ethnicity": "White: Eng./Welsh/Scot./N.Irish/British",
      "youthOffender": false,
      "maritalStatus": "Single-not married/in civil partnership",
      "religion": "Church of England (Anglican)",
      "nationality": "British",
      "status": "ACTIVE IN",
      "lastMovementTypeCode": "ADM",
      "lastMovementReasonCode": "INT",
      "inOutStatus": "IN",
      "prisonId": "MDI",
      "prisonName": "Moorland (HMP & YOI)",
      "cellLocation": "6-2-015",
      "aliases": [
        {
          "firstName": "UZNESWE",
          "lastName": "CATHENTINE",
          "dateOfBirth": "1974-04-28",
          "gender": "Male",
          "ethnicity": "White: Eng./Welsh/Scot./N.Irish/British"
        }
      ],
      "alerts": [
        {
          "alertType": "X",
          "alertCode": "XVL",
          "active": true,
          "expired": false
        },
        {
          "alertType": "R",
          "alertCode": "RDV",
          "active": true,
          "expired": false
        }
      ],
      "csra": "Standard",
      "category": "C",
      "legalStatus": "SENTENCED",
      "imprisonmentStatus": "SENT03",
      "imprisonmentStatusDescription": "Adult Imprisonment Without Option CJA03",
      "mostSeriousOffence": "Burglary dwelling - with intent to steal",
      "recall": true,
      "indeterminateSentence": false,
      "sentenceStartDate": "2014-10-23",
      "releaseDate": "2023-12-12",
      "confirmedReleaseDate": "2099-09-12",
      "sentenceExpiryDate": "2020-10-06",
      "licenceExpiryDate": "2020-10-31",
      "homeDetentionCurfewEligibilityDate": "2018-10-16",
      "nonDtoReleaseDate": "2018-10-16",
      "nonDtoReleaseDateType": "CRD",
      "receptionDate": "2014-08-11",
      "conditionalReleaseDate": "2018-10-16",
      "locationDescription": "Moorland (HMP & YOI)",
      "restrictedPatient": false,
      "currentIncentive": {
        "level": {
          "code": "EN3",
          "description": "Enhanced 3"
        },
        "dateTime": "2022-12-02T09:22:39",
        "nextReviewDate": "2023-12-02"
      },
      "heightCentimetres": 175,
      "weightKilograms": 76,
      "hairColour": "Black",
      "rightEyeColour": "Hazel",
      "leftEyeColour": "Hazel",
      "facialHair": "Clean Shaven",
      "shapeOfFace": "Oval",
      "build": "Proportional",
      "tattoos": [
        {
          "bodyPart": "Arm",
          "comment": "FhuSezELhFhuSezELh"
        },
        {
          "bodyPart": "Arm",
          "comment": "fsmPRpuuoFpiqdifsmPRpuuoFpiqdi"
        },
        {
          "bodyPart": "Neck",
          "comment": "dIgZdIgZ"
        },
        {
          "bodyPart": "Face",
          "comment": "txFskkUGIKOjgtxFskkUGIKOjg"
        },
        {
          "bodyPart": "Hand",
          "comment": "MiqasYwKMiqasYwK"
        },
        {
          "bodyPart": "Neck",
          "comment": "AHuoAHuo"
        },
        {
          "bodyPart": "Arm",
          "comment": "ciHouciHo"
        },
        {
          "bodyPart": "Arm",
          "comment": "NoWAazmBVMIKAhNoWAazmBVMIKA"
        }
      ],
      "scars": [
        {
          "bodyPart": "Lip"
        },
        {
          "bodyPart": "Head"
        },
        {
          "bodyPart": "Arm",
          "comment": "lgWflgW"
        },
        {
          "bodyPart": "Arm",
          "comment": "gyQkCVRBegyQkCVRBe"
        }
      ]
    }
  ],
  "pageable": {
    "sort": {
      "empty": true,
      "sorted": false,
      "unsorted": true
    },
    "offset": 10,
    "pageSize": 1,
    "pageNumber": 10,
    "paged": true,
    "unpaged": false
  },
  "totalElements": 10,
  "totalPages": 10,
  "last": true,
  "size": 1,
  "number": 10,
  "sort": {
    "empty": true,
    "sorted": false,
    "unsorted": true
  },
  "first": false,
  "numberOfElements": 1,
  "empty": false
}
