{
  "content": [
    {
      "prisonerNumber": "G6335VX",
      "pncNumber": "06/499998R",
      "pncNumberCanonicalShort": "06/499998R",
      "pncNumberCanonicalLong": "2006/499998R",
      "croNumber": "362714/06T",
      "bookingId": "827499",
      "bookNumber": "L92284",
      "firstName": "GARRETT",
      "middleNames": "SYLVANNA",
      "lastName": "COUTCHER",
      "dateOfBirth": "1995-10-11",
      "gender": "Male",
      "ethnicity": "White: Eng./Welsh/Scot./N.Irish/British",
      "youthOffender": true,
      "maritalStatus": "Single-not married/in civil partnership",
      "religion": "No Religion",
      "nationality": "British",
      "status": "ACTIVE IN",
      "lastMovementTypeCode": "ADM",
      "lastMovementReasonCode": "INT",
      "inOutStatus": "IN",
      "prisonId": "MDI",
      "prisonName": "Moorland (HMP & YOI)",
      "cellLocation": "6-3-042",
      "aliases": [
        {
          "firstName": "EGVANING",
          "lastName": "KENDOLD",
          "dateOfBirth": "1995-09-21",
          "gender": "Male",
          "ethnicity": "White: Eng./Welsh/Scot./N.Irish/British"
        },
        {
          "firstName": "EQIONGTON",
          "lastName": "CORBOLFO",
          "dateOfBirth": "1995-04-25",
          "gender": "Male"
        },
        {
          "firstName": "ULFUALATE",
          "lastName": "EFRWYN",
          "dateOfBirth": "1995-04-22",
          "gender": "Male"
        },
        {
          "firstName": "ULFUALATE",
          "lastName": "QUENTARD",
          "dateOfBirth": "1995-10-04",
          "gender": "Male"
        },
        {
          "firstName": "ULFUALATE",
          "lastName": "SPENCANA",
          "dateOfBirth": "1994-09-25",
          "gender": "Male"
        }
      ],
      "alerts": [
        {
          "alertType": "M",
          "alertCode": "PEEP",
          "active": true,
          "expired": false
        },
        {
          "alertType": "T",
          "alertCode": "TAH",
          "active": true,
          "expired": false
        },
        {
          "alertType": "R",
          "alertCode": "RST",
          "active": true,
          "expired": false
        },
        {
          "alertType": "R",
          "alertCode": "RKS",
          "active": true,
          "expired": false
        },
        {
          "alertType": "R",
          "alertCode": "ROH",
          "active": true,
          "expired": false
        },
        {
          "alertType": "O",
          "alertCode": "OCYP",
          "active": true,
          "expired": false
        },
        {
          "alertType": "X",
          "alertCode": "XR",
          "active": true,
          "expired": false
        },
        {
          "alertType": "X",
          "alertCode": "XSA",
          "active": true,
          "expired": false
        },
        {
          "alertType": "X",
          "alertCode": "XVL",
          "active": true,
          "expired": false
        }
      ],
      "csra": "High",
      "category": "C",
      "legalStatus": "SENTENCED",
      "imprisonmentStatus": "YOI_ORA",
      "imprisonmentStatusDescription": "ORA Young Offender Institution",
      "mostSeriousOffence": "Assault by beating",
      "recall": true,
      "indeterminateSentence": false,
      "sentenceStartDate": "2014-02-07",
      "releaseDate": "2024-05-11",
      "confirmedReleaseDate": "2017-05-11",
      "sentenceExpiryDate": "2017-06-11",
      "licenceExpiryDate": "2017-06-25",
      "topupSupervisionStartDate": "2017-06-26",
      "topupSupervisionExpiryDate": "2017-10-22",
      "nonDtoReleaseDate": "2017-07-03",
      "nonDtoReleaseDateType": "CRD",
      "receptionDate": "2014-01-09",
      "postRecallReleaseDate": "2017-07-03",
      "locationDescription": "Moorland (HMP & YOI)",
      "restrictedPatient": false,
      "currentIncentive": {
        "level": {
          "code": "STD",
          "description": "Standard"
        },
        "dateTime": "2017-02-06T12:03:06",
        "nextReviewDate": "2018-02-06"
      },
      "heightCentimetres": 173,
      "weightKilograms": 84,
      "hairColour": "Red",
      "rightEyeColour": "Brown",
      "leftEyeColour": "Brown",
      "facialHair": "Clean Shaven",
      "shapeOfFace": "Oval",
      "build": "Proportional",
      "shoeSize": 8
    },
    {
      "prisonerNumber": "A8132DY",
      "bookingId": "1201664",
      "bookNumber": "38792A",
      "firstName": "GEORGE",
      "lastName": "HAMILTON",
      "dateOfBirth": "1971-09-08",
      "gender": "Male",
      "youthOffender": false,
      "status": "ACTIVE IN",
      "lastMovementTypeCode": "ADM",
      "lastMovementReasonCode": "V",
      "inOutStatus": "IN",
      "prisonId": "MDI",
      "prisonName": "Moorland (HMP & YOI)",
      "cellLocation": "1-3-004",
      "aliases": [],
      "alerts": [],
      "category": "C",
      "legalStatus": "SENTENCED",
      "imprisonmentStatus": "SENT03",
      "imprisonmentStatusDescription": "Adult Imprisonment Without Option CJA03",
      "mostSeriousOffence": "Depositing builder's skip on highway not painted yellow",
      "recall": false,
      "indeterminateSentence": false,
      "sentenceStartDate": "2015-02-22",
      "releaseDate": "2023-10-23",
      "sentenceExpiryDate": "2015-12-21",
      "licenceExpiryDate": "2015-09-05",
      "homeDetentionCurfewEligibilityDate": "2015-05-09",
      "topupSupervisionStartDate": "2015-09-06",
      "topupSupervisionExpiryDate": "2016-07-23",
      "nonDtoReleaseDate": "2015-07-23",
      "nonDtoReleaseDateType": "CRD",
      "receptionDate": "2015-02-01",
      "conditionalReleaseDate": "2015-07-23",
      "locationDescription": "Moorland (HMP & YOI)",
      "restrictedPatient": false,
      "currentIncentive": {
        "level": {
          "code": "STD",
          "description": "Standard"
        },
        "dateTime": "2021-11-29T12:51:39",
        "nextReviewDate": "2022-11-29"
      }
    },
    {
      "prisonerNumber": "A8257DY",
      "bookingId": "1201801",
      "bookNumber": "38907A",
      "firstName": "GLENN",
      "lastName": "MCGRATH",
      "dateOfBirth": "1979-02-01",
      "gender": "Female",
      "youthOffender": false,
      "status": "ACTIVE IN",
      "lastMovementTypeCode": "ADM",
      "lastMovementReasonCode": "V",
      "inOutStatus": "IN",
      "prisonId": "MDI",
      "prisonName": "Moorland (HMP & YOI)",
      "cellLocation": "MCASU-CASU1-C1-003",
      "aliases": [],
      "alerts": [],
      "legalStatus": "SENTENCED",
      "imprisonmentStatus": "SENT03",
      "imprisonmentStatusDescription": "Adult Imprisonment Without Option CJA03",
      "mostSeriousOffence": "Fail to notify loss / theft of firearm",
      "recall": false,
      "indeterminateSentence": false,
      "sentenceStartDate": "2022-01-13",
      "releaseDate": "2023-08-28",
      "sentenceExpiryDate": "2023-04-12",
      "licenceExpiryDate": "2023-04-12",
      "homeDetentionCurfewEligibilityDate": "2022-05-07",
      "topupSupervisionStartDate": "2023-04-13",
      "topupSupervisionExpiryDate": "2023-08-28",
      "nonDtoReleaseDate": "2022-08-28",
      "nonDtoReleaseDateType": "CRD",
      "receptionDate": "2021-11-09",
      "conditionalReleaseDate": "2022-08-28",
      "locationDescription": "Moorland (HMP & YOI)",
      "restrictedPatient": false,
      "currentIncentive": {
        "level": {
          "code": "STD",
          "description": "Standard"
        },
        "dateTime": "2022-01-13T12:53:27",
        "nextReviewDate": "2023-01-13"
      }
    }
  ],
  "pageable": {
    "sort": {
      "empty": true,
      "sorted": false,
      "unsorted": true
    },
    "offset": 10,
    "pageSize": 1,
    "pageNumber": 10,
    "paged": true,
    "unpaged": false
  },
  "totalElements": 10,
  "totalPages": 10,
  "last": true,
  "size": 1,
  "number": 10,
  "sort": {
    "empty": true,
    "sorted": false,
    "unsorted": true
  },
  "first": false,
  "numberOfElements": 1,
  "empty": false
}